﻿BirthDate,Place,Name,State,Event,Sex,Division,BodyweightKg,WeightClassKg,Squat1Kg,Squat2Kg,Squat3Kg,Best3SquatKg,Bench1Kg,Bench2Kg,Bench3Kg,Best3BenchKg,Deadlift1Kg,Deadlift2Kg,Deadlift3Kg,Best3DeadliftKg,TotalKg,Equipment
,1,Lauren Graham,AB,SBD,F,Masters 1,62.18,63,110,-115,-115,110,62.5,65,-67.5,65,130,135,137.5,137.5,312.5,Raw
,1,Terrill Moyo IV,AB,SBD,M,Juniors,69.24,74,160,172.5,180,180,100,110,-115,110,210,222.5,230,230,520,Raw
,2,Nathaniel Sudario,AB,SBD,M,Juniors,71.06,74,157.5,165,167.5,167.5,-105,105,112.5,112.5,167.5,177.5,187.5,187.5,467.5,Raw
,1,Emmanuel Cruz,AB,SBD,M,Juniors,79.14,83,205,215,225,225,120,-125,-125,120,237.5,240,250,250,595,Raw
,2,Brenek Spademan,AB,SBD,M,Juniors,80.42,83,-192.5,192.5,205,205,135,145,150,150,175,187.5,200,200,555,Raw
,3,Owain Wilson,AB,SBD,M,Juniors,78.06,83,177.5,190,195,195,87.5,95,100,100,200,212.5,225,225,520,Raw
,1,Vince Barcelos,AB,SBD,M,Juniors,90.8,93,190,200,205,205,125,132.5,137.5,137.5,205,220,227.5,227.5,570,Raw
,1,Dimitrios Poulios,AB,SBD,M,Juniors,104.41,105,180,195,200,200,100,102.5,105,105,185,195,200,200,505,Raw
,1,Eric O'Donnell,AB,SBD,M,Juniors,144.48,120+,185,205,215,215,110,120,125,125,210,230,-235,230,570,Raw
,1,Brent Phillips,AB,SBD,M,Masters 2,101.07,105,125,132.5,137.5,137.5,105,112.5,-120,112.5,152.5,160,165,165,415,Raw
,1,Razvan Pastor,AB,SBD,M,Open,73.98,74,170,-172.5,175,175,105,-110,-110,105,175,-185,190,190,470,Raw
,1,Melnard De Leon,AB,SBD,M,Open,79.49,83,212.5,-225,225,225,140,145,-147.5,145,255,280,-300,280,650,Raw
,2,Seung Hoon Jo,AB,SBD,M,Open,82.01,83,190,202.5,207.5,207.5,115,-120,120,120,190,200,-207.5,200,527.5,Raw
,3,Joshua Lei Manuel,AB,SBD,M,Open,76.86,83,175,185,-187.5,185,105,110,117.5,117.5,195,207.5,222.5,222.5,525,Raw
,1,Christopher Handel,AB,SBD,M,Open,92.6,93,235,250,260,260,125,132.5,135,135,-245,260,270,270,665,Raw
,2,Anthony Burden,AB,SBD,M,Open,89.84,93,250,-265,265,265,122.5,127.5,-132.5,127.5,235,250,-255,250,642.5,Raw
,3,Vernon Luke Llave,AB,SBD,M,Open,85.76,93,130,142.5,145,145,80,95,-100,95,175,185,192.5,192.5,432.5,Raw
,1,Michael Kho,AB,SBD,M,Open,98.61,105,205,-207.5,235,235,182.5,195,205,205,225,250,260,260,700,Raw
,2,Cristiane Djor Cambi,AB,SBD,M,Open,99.77,105,222.5,232.5,240,240,120,125,127.5,127.5,235,245,255,255,622.5,Raw
,3,Andrew Geerligs,AB,SBD,M,Open,103.92,105,170,180,187.5,187.5,120,130,135,135,200,215,225,225,547.5,Raw
,DQ,Braden Antoniuk,AB,SBD,M,Open,115.25,120,-255,-255,-255,,,,,,,,,,,Raw
,2,Fulton Alexander,AB,SBD,M,Sub-Juniors,79.49,83,140,150,-160,150,80,85,-92.5,85,185,200,210,210,445,Raw
,1,Adam Buschert,AB,SBD,M,Sub-Juniors,91.43,93,180,195,-205,195,102.5,110,-115,110,235,245,260,260,565,Raw
,2,Hudson Baker,AB,SBD,M,Sub-Juniors,90.69,93,150,160,-172.5,160,87.5,95,-102.5,95,160,175,185,185,440,Raw
,DQ,Aaron Myles,AB,SBD,M,Sub-Juniors,95.11,105,145,155,160,160,-85,-85,-85,,,,,,,Raw
,1,Youssef Zeidan,AB,SBD,M,Sub-Juniors,117.88,120,255,265,-272.5,265,145,-150,-150,145,240,250,-260,250,660,Raw
,1,Dara Fonseca Mora,AB,SBD,F,Juniors,54.57,57,112.5,120,125,125,60,65,67.5,67.5,145,152.5,160,160,352.5,Raw
,1,Sadie Dumba,AB,SBD,F,Juniors,61.21,63,115,122.5,-130,122.5,62.5,65,-70,65,130,140,145,145,332.5,Raw
,2,JodiAnn Fester,AB,SBD,F,Juniors,61.67,63,107.5,112.5,-117.5,112.5,47.5,50,52.5,52.5,122.5,132.5,140,140,305,Raw
,1,Shekinah Grace Arguelles,AB,SBD,F,Juniors,66.98,69,107.5,112.5,117.5,117.5,50,52.5,-55,52.5,125,130,137.5,137.5,307.5,Raw
,2,Dayanna Estrella Fonte,AB,SBD,F,Juniors,66.55,69,90,102.5,-120,102.5,52.5,55,57.5,57.5,110,120,-132.5,120,280,Raw
,1,Isabella Bregliano,AB,SBD,F,Juniors,70.97,76,142.5,152.5,-160,152.5,72.5,80,-85,80,175,188,195,195,427.5,Raw
,2,Chisom Ezeh,AB,SBD,F,Juniors,74.3,76,142.5,152.5,160,160,72.5,75,85,85,170,180,-190,180,425,Raw
,1,Dieselle Ford,AB,SBD,F,Juniors,104.59,84+,97.5,105,-110,105,50,55,-62.5,55,120,122.5,125,125,285,Raw
,1,Jamie Dodd #1,AB,SBD,F,Masters 1,65.7,69,82.5,90,95,95,52.5,57.5,-60,57.5,92.5,100,107.5,107.5,260,Raw
,1,Jeannie Stewart,AB,SBD,F,Masters 1,74.91,76,82.5,90,-92.5,90,40,45,47.5,47.5,95,-105,105,105,242.5,Raw
,1,Jenny Howe,AB,SBD,F,Masters 1,101.64,84+,110,120,127.5,127.5,65,-67.5,-67.5,65,140,145,-150,145,337.5,Raw
,DQ,Lenette O Donnell,AB,SBD,F,Masters 1,101.43,84+,-92.5,92.5,-97.5,92.5,-42.5,-47.5,-47.5,,,,,,,Raw
,1,Stacey Olivieri,AB,SBD,F,Open,45.39,47,80,85,90,90,40,42.5,45,45,92.5,100,105,105,240,Raw
,1,Lorraine Lopez,AB,SBD,F,Open,54.58,57,90,95,100,100,47.5,50,-52,50,115,117.5,120,120,270,Raw
,1,Malori Stan,AB,SBD,F,Open,62.06,63,-117.5,-117.5,117.5,117.5,65,70,-72.5,70,122.5,130,140,140,327.5,Raw
,1,Vannessa Tamayo Milian,AB,SBD,F,Open,63.75,69,72.5,85,92.5,92.5,47.5,52.5,55,55,100,115,-125,115,262.5,Raw
,1,Leah Cameron,AB,SBD,F,Open,71.74,76,-155,155,162.5,162.5,95,-100,-100,95,170,182.5,190,190,447.5,Raw
,1,Faith Morrow,AB,SBD,F,Open,92.24,84+,-142.5,150,167.5,167.5,72.5,-77.5,77.5,77.5,170,187.5,-200,187.5,432.5,Raw
,2,Esther Pond,AB,SBD,F,Open,90.79,84+,140,147.5,-155,147.5,67.5,72.5,-77.5,72.5,147.5,157.5,167.5,167.5,387.5,Raw
,3,Meghan Maiani,AB,SBD,F,Open,102.15,84+,-55,-55,55,55,55,60,65,65,110,115,120,120,240,Raw
,1,Dayla Kaechele,AB,SBD,F,Sub-Juniors,54.23,57,57.5,62.5,67.5,67.5,40,42.5,-45,42.5,77.5,82.5,90,90,200,Raw
,1,Sylvain Rourke,AB,SBD,M,Juniors,66,66,167.5,-177.5,180,180,77.5,85,-95,85,170,180,195,195,460,Raw
,1,Luis Castor,AB,SBD,M,Sub-Juniors,65.04,66,125,137.5,-142.5,137.5,92.5,97.5,-102.5,97.5,197.5,-215,-215,197.5,432.5,Raw
,1,Dylan Cortes,AB,SBD,M,Sub-Juniors,71.18,74,165,175,182.5,182.5,100,105,107.5,107.5,220,230,241,241,531,Raw
,2,Tristan Hache,AB,SBD,M,Sub-Juniors,73.21,74,140,155,165,165,92.5,-97.5,-97.5,92.5,-185,200,-210,200,457.5,Raw
,3,Holden Smith,AB,SBD,M,Sub-Juniors,70.78,74,130,142.5,-150,142.5,72.5,77.5,82.5,82.5,145,160,170,170,395,Raw
,1,Jasper Kotowich,AB,SBD,M,Sub-Juniors,77.82,83,150,162.5,172.5,172.5,97.5,-100,100,100,190,200,205,205,477.5,Raw
,DQ,Cody Sippel,AB,SBD,M,Open,89.15,93,-185,-187.5,-187.5,,,,,,,,,,,Raw
